processor_withbranch_prediction_wrong_behavour/src/soc.vcd
$date
	Fri Apr  4 07:29:00 2025
$end
$version
	Icarus Verilog
$end
$timescale
	1ps
$end
$scope module soc_tb $end
$var wire 12 ! OUT3 [11:0] $end
$var wire 12 " OUT2 [11:0] $end
$var wire 12 # OUT1 [11:0] $end
$var wire 12 $ OUT0 [11:0] $end
$var reg 1 % CLK $end
$var reg 12 & IN0 [11:0] $end
$var reg 12 ' IN1 [11:0] $end
$var reg 12 ( IN2 [11:0] $end
$var reg 12 ) IN3 [11:0] $end
$var reg 1 * RES $end
$var integer 32 + i [31:0] $end
$scope module uut $end
$var wire 1 % CLK $end
$var wire 16 , DATA0 [15:0] $end
$var wire 16 - DATA1 [15:0] $end
$var wire 16 . DATA2 [15:0] $end
$var wire 16 / DATA3 [15:0] $end
$var wire 12 0 IN0 [11:0] $end
$var wire 12 1 IN1 [11:0] $end
$var wire 12 2 IN2 [11:0] $end
$var wire 12 3 IN3 [11:0] $end
$var wire 1 * RES $end
$var wire 1 4 WR3 $end
$var wire 1 5 WR2 $end
$var wire 1 6 WR1 $end
$var wire 1 7 WR0 $end
$var wire 1 8 RD3 $end
$var wire 1 9 RD2 $end
$var wire 1 : RD1 $end
$var wire 1 ; RD0 $end
$var wire 16 < ADDR3 [15:0] $end
$var wire 16 = ADDR2 [15:0] $end
$var wire 16 > ADDR1 [15:0] $end
$var wire 16 ? ADDR0 [15:0] $end
$var reg 16 @ DATAO0 [15:0] $end
$var reg 16 A DATAO1 [15:0] $end
$var reg 16 B DATAO2 [15:0] $end
$var reg 16 C DATAO3 [15:0] $end
$var reg 12 D OUT0 [11:0] $end
$var reg 12 E OUT1 [11:0] $end
$var reg 12 F OUT2 [11:0] $end
$var reg 12 G OUT3 [11:0] $end
$var integer 32 H j [31:0] $end
$scope module core0 $end
$var wire 1 % CLK $end
$var wire 16 I DATA [15:0] $end
$var wire 1 * RES $end
$var wire 1 J predict_taken $end
$var wire 8 K predict_history [7:0] $end
$var wire 4 L SREG [3:0] $end
$var wire 4 M OPTS [3:0] $end
$var wire 4 N OPCODE [3:0] $end
$var wire 8 O IMM [7:0] $end
$var wire 4 P DREG [3:0] $end
$var reg 16 Q ADDR [15:0] $end
$var reg 16 R DOUT [15:0] $end
$var reg 16 S IR [15:0] $end
$var reg 1 T MEM_ACCESS $end
$var reg 16 U MEM_ADDR [15:0] $end
$var reg 16 V MEM_DATA [15:0] $end
$var reg 16 W NEXT_PC [15:0] $end
$var reg 16 X PC [15:0] $end
$var reg 1 ; RD $end
$var reg 1 Y STAGE $end
$var reg 1 7 WR $end
$var reg 16 Z branch_target [15:0] $end
$var reg 1 [ is_branch $end
$var reg 16 \ next_sequential_pc [15:0] $end
$var reg 1 ] predict_valid $end
$var reg 8 ^ prev_history [7:0] $end
$var reg 16 _ prev_pc [15:0] $end
$var reg 1 ` prev_prediction $end
$var reg 8 a train_history [7:0] $end
$var reg 1 b train_mispredicted $end
$var reg 16 c train_pc [15:0] $end
$var reg 1 d train_taken $end
$var reg 1 e train_valid $end
$var integer 32 f i [31:0] $end
$scope module bp $end
$var wire 1 % CLK $end
$var wire 1 * RES $end
$var wire 8 g predict_history [7:0] $end
$var wire 8 h predict_index [7:0] $end
$var wire 16 i predict_pc [15:0] $end
$var wire 1 ] predict_valid $end
$var wire 8 j train_history [7:0] $end
$var wire 8 k train_index [7:0] $end
$var wire 1 b train_mispredicted $end
$var wire 16 l train_pc [15:0] $end
$var wire 1 d train_taken $end
$var wire 1 e train_valid $end
$var wire 1 J predict_taken $end
$var parameter 2 m STRONGLY_NOT_TAKEN $end
$var parameter 2 n STRONGLY_TAKEN $end
$var parameter 2 o WEAKLY_NOT_TAKEN $end
$var parameter 2 p WEAKLY_TAKEN $end
$var reg 8 q branch_history [7:0] $end
$var integer 32 r i [31:0] $end
$upscope $end
$upscope $end
$scope module core1 $end
$var wire 1 % CLK $end
$var wire 16 s DATA [15:0] $end
$var wire 1 * RES $end
$var wire 1 t predict_taken $end
$var wire 8 u predict_history [7:0] $end
$var wire 4 v SREG [3:0] $end
$var wire 4 w OPTS [3:0] $end
$var wire 4 x OPCODE [3:0] $end
$var wire 8 y IMM [7:0] $end
$var wire 4 z DREG [3:0] $end
$var reg 16 { ADDR [15:0] $end
$var reg 16 | DOUT [15:0] $end
$var reg 16 } IR [15:0] $end
$var reg 1 ~ MEM_ACCESS $end
$var reg 16 !" MEM_ADDR [15:0] $end
$var reg 16 "" MEM_DATA [15:0] $end
$var reg 16 #" NEXT_PC [15:0] $end
$var reg 16 $" PC [15:0] $end
$var reg 1 : RD $end
$var reg 1 %" STAGE $end
$var reg 1 6 WR $end
$var reg 16 &" branch_target [15:0] $end
$var reg 1 '" is_branch $end
$var reg 16 (" next_sequential_pc [15:0] $end
$var reg 1 )" predict_valid $end
$var reg 8 *" prev_history [7:0] $end
$var reg 16 +" prev_pc [15:0] $end
$var reg 1 ," prev_prediction $end
$var reg 8 -" train_history [7:0] $end
$var reg 1 ." train_mispredicted $end
$var reg 16 /" train_pc [15:0] $end
$var reg 1 0" train_taken $end
$var reg 1 1" train_valid $end
$var integer 32 2" i [31:0] $end
$scope module bp $end
$var wire 1 % CLK $end
$var wire 1 * RES $end
$var wire 8 3" predict_history [7:0] $end
$var wire 8 4" predict_index [7:0] $end
$var wire 16 5" predict_pc [15:0] $end
$var wire 1 )" predict_valid $end
$var wire 8 6" train_history [7:0] $end
$var wire 8 7" train_index [7:0] $end
$var wire 1 ." train_mispredicted $end
$var wire 16 8" train_pc [15:0] $end
$var wire 1 0" train_taken $end
$var wire 1 1" train_valid $end
$var wire 1 t predict_taken $end
$var parameter 2 9" STRONGLY_NOT_TAKEN $end
$var parameter 2 :" STRONGLY_TAKEN $end
$var parameter 2 ;" WEAKLY_NOT_TAKEN $end
$var parameter 2 <" WEAKLY_TAKEN $end
$var reg 8 =" branch_history [7:0] $end
$var integer 32 >" i [31:0] $end
$upscope $end
$upscope $end
$scope module core2 $end
$var wire 1 % CLK $end
$var wire 16 ?" DATA [15:0] $end
$var wire 1 * RES $end
$var wire 1 @" predict_taken $end
$var wire 8 A" predict_history [7:0] $end
$var wire 4 B" SREG [3:0] $end
$var wire 4 C" OPTS [3:0] $end
$var wire 4 D" OPCODE [3:0] $end
$var wire 8 E" IMM [7:0] $end
$var wire 4 F" DREG [3:0] $end
$var reg 16 G" ADDR [15:0] $end
$var reg 16 H" DOUT [15:0] $end
$var reg 16 I" IR [15:0] $end
$var reg 1 J" MEM_ACCESS $end
$var reg 16 K" MEM_ADDR [15:0] $end
$var reg 16 L" MEM_DATA [15:0] $end
$var reg 16 M" NEXT_PC [15:0] $end
$var reg 16 N" PC [15:0] $end
$var reg 1 9 RD $end
$var reg 1 O" STAGE $end
$var reg 1 5 WR $end
$var reg 16 P" branch_target [15:0] $end
$var reg 1 Q" is_branch $end
$var reg 16 R" next_sequential_pc [15:0] $end
$var reg 1 S" predict_valid $end
$var reg 8 T" prev_history [7:0] $end
$var reg 16 U" prev_pc [15:0] $end
$var reg 1 V" prev_prediction $end
$var reg 8 W" train_history [7:0] $end
$var reg 1 X" train_mispredicted $end
$var reg 16 Y" train_pc [15:0] $end
$var reg 1 Z" train_taken $end
$var reg 1 [" train_valid $end
$var integer 32 \" i [31:0] $end
$scope module bp $end
$var wire 1 % CLK $end
$var wire 1 * RES $end
$var wire 8 ]" predict_history [7:0] $end
$var wire 8 ^" predict_index [7:0] $end
$var wire 16 _" predict_pc [15:0] $end
$var wire 1 S" predict_valid $end
$var wire 8 `" train_history [7:0] $end
$var wire 8 a" train_index [7:0] $end
$var wire 1 X" train_mispredicted $end
$var wire 16 b" train_pc [15:0] $end
$var wire 1 Z" train_taken $end
$var wire 1 [" train_valid $end
$var wire 1 @" predict_taken $end
$var parameter 2 c" STRONGLY_NOT_TAKEN $end
$var parameter 2 d" STRONGLY_TAKEN $end
$var parameter 2 e" WEAKLY_NOT_TAKEN $end
$var parameter 2 f" WEAKLY_TAKEN $end
$var reg 8 g" branch_history [7:0] $end
$var integer 32 h" i [31:0] $end
$upscope $end
$upscope $end
$scope module core3 $end
$var wire 1 % CLK $end
$var wire 16 i" DATA [15:0] $end
$var wire 1 * RES $end
$var wire 1 j" predict_taken $end
$var wire 8 k" predict_history [7:0] $end
$var wire 4 l" SREG [3:0] $end
$var wire 4 m" OPTS [3:0] $end
$var wire 4 n" OPCODE [3:0] $end
$var wire 8 o" IMM [7:0] $end
$var wire 4 p" DREG [3:0] $end
$var reg 16 q" ADDR [15:0] $end
$var reg 16 r" DOUT [15:0] $end
$var reg 16 s" IR [15:0] $end
$var reg 1 t" MEM_ACCESS $end
$var reg 16 u" MEM_ADDR [15:0] $end
$var reg 16 v" MEM_DATA [15:0] $end
$var reg 16 w" NEXT_PC [15:0] $end
$var reg 16 x" PC [15:0] $end
$var reg 1 8 RD $end
$var reg 1 y" STAGE $end
$var reg 1 4 WR $end
$var reg 16 z" branch_target [15:0] $end
$var reg 1 {" is_branch $end
$var reg 16 |" next_sequential_pc [15:0] $end
$var reg 1 }" predict_valid $end
$var reg 8 ~" prev_history [7:0] $end
$var reg 16 !# prev_pc [15:0] $end
$var reg 1 "# prev_prediction $end
$var reg 8 ## train_history [7:0] $end
$var reg 1 $# train_mispredicted $end
$var reg 16 %# train_pc [15:0] $end
$var reg 1 &# train_taken $end
$var reg 1 '# train_valid $end
$var integer 32 (# i [31:0] $end
$scope module bp $end
$var wire 1 % CLK $end
$var wire 1 * RES $end
$var wire 8 )# predict_history [7:0] $end
$var wire 8 *# predict_index [7:0] $end
$var wire 16 +# predict_pc [15:0] $end
$var wire 1 }" predict_valid $end
$var wire 8 ,# train_history [7:0] $end
$var wire 8 -# train_index [7:0] $end
$var wire 1 $# train_mispredicted $end
$var wire 16 .# train_pc [15:0] $end
$var wire 1 &# train_taken $end
$var wire 1 '# train_valid $end
$var wire 1 j" predict_taken $end
$var parameter 2 /# STRONGLY_NOT_TAKEN $end
$var parameter 2 0# STRONGLY_TAKEN $end
$var parameter 2 1# WEAKLY_NOT_TAKEN $end
$var parameter 2 2# WEAKLY_TAKEN $end
$var reg 8 3# branch_history [7:0] $end
$var integer 32 4# i [31:0] $end
$upscope $end
$upscope $end
$upscope $end
$upscope $end
$enddefinitions $end
$comment Show the parameter values. $end
$dumpall
b10 2#
b1 1#
b11 0#
b0 /#
b10 f"
b1 e"
b11 d"
b0 c"
b10 <"
b1 ;"
b11 :"
b0 9"
b10 p
b1 o
b11 n
b0 m
$end
#0
$dumpvars
bx 4#
bx 3#
b0 .#
b0 -#
b0 ,#
b0 +#
bx *#
bx )#
b10000 (#
0'#
0&#
b0 %#
0$#
b0 ##
0"#
b0 !#
b0 ~"
0}"
b0 |"
0{"
b0 z"
0y"
b0 x"
bx w"
b0 v"
b0 u"
0t"
b0 s"
b0 r"
bx q"
b0 p"
b0 o"
b0 n"
b0 m"
b0 l"
bx k"
0j"
bx i"
bx h"
bx g"
b0 b"
b0 a"
b0 `"
b0 _"
bx ^"
bx ]"
b10000 \"
0["
0Z"
b0 Y"
0X"
b0 W"
0V"
b0 U"
b0 T"
0S"
b0 R"
0Q"
b0 P"
0O"
b0 N"
bx M"
b0 L"
b0 K"
0J"
b0 I"
b0 H"
bx G"
b0 F"
b0 E"
b0 D"
b0 C"
b0 B"
bx A"
0@"
bx ?"
bx >"
bx ="
b0 8"
b0 7"
b0 6"
b0 5"
bx 4"
bx 3"
b10000 2"
01"
00"
b0 /"
0."
b0 -"
0,"
b0 +"
b0 *"
0)"
b0 ("
0'"
b0 &"
0%"
b0 $"
bx #"
b0 ""
b0 !"
0~
b0 }
b0 |
bx {
b0 z
b0 y
b0 x
b0 w
b0 v
bx u
0t
bx s
bx r
bx q
b0 l
b0 k
b0 j
b0 i
bx h
bx g
b10000 f
0e
0d
b0 c
0b
b0 a
0`
b0 _
b0 ^
0]
b0 \
0[
b0 Z
0Y
b0 X
bx W
b0 V
b0 U
0T
b0 S
b0 R
bx Q
b0 P
b0 O
b0 N
b0 M
b0 L
bx K
0J
bx I
b11111 H
b0 G
b0 F
b0 E
b0 D
b0 C
b0 B
b0 A
b0 @
bx ?
bx >
bx =
bx <
x;
x:
x9
x8
x7
x6
x5
x4
b0 3
b0 2
b0 1
b0 0
bx /
bx .
bx -
bx ,
b0 +
0*
b0 )
b0 (
b0 '
b0 &
0%
b0 $
b0 #
b0 "
b0 !
$end
#10000
b0 h
bz ,
bz I
b0 4"
bz -
bz s
b0 ^"
bz .
bz ?"
b0 *#
bz /
bz i"
b0 K
b0 g
b0 q
07
0;
b0 u
b0 3"
b0 ="
06
0:
b0 A"
b0 ]"
b0 g"
05
09
b0 k"
b0 )#
b0 3#
04
08
b100000000 r
b100000000 >"
b100000000 h"
b100000000 4#
b1 +
1%
#20000
b10 +
0%
#30000
b100000000 4#
b100000000 h"
b100000000 >"
b100000000 r
b11 +
1%
#40000
b100 +
0%
#50000
b100000000 r
b100000000 >"
b100000000 h"
b100000000 4#
b101 +
1%
#60000
b110 +
0%
#70000
b100000000 4#
b100000000 h"
b100000000 >"
b100000000 r
b111 +
1%
#80000
b1000 +
0%
#90000
b100000000 r
b100000000 >"
b100000000 h"
b100000000 4#
b1001 +
1%
#100000
b1010 +
0%
#110000
b100000000 4#
b100000000 h"
b100000000 >"
b100000000 r
b1011 +
1%
#120000
b1100 +
1*
0%
#130000
bz N
bz P
bz L
bz M
bz O
b0 ,
b0 I
bz x
bz z
bz v
bz w
bz y
b0 -
b0 s
bz D"
bz F"
bz B"
bz C"
bz E"
b0 .
b0 ?"
bz n"
bz p"
bz l"
bz m"
bz o"
b0 /
b0 i"
1]
1Y
bz S
1;
b0 ?
b0 Q
1)"
1%"
bz }
1:
b0 >
b0 {
1S"
1O"
bz I"
19
b0 =
b0 G"
1}"
1y"
bz s"
18
b0 <
b0 q"
b1101 +
1%
#140000
b1110 +
0%
#150000
b1 *#
b1 ^"
b1 4"
b1 h
bz /
bz i"
bz .
bz ?"
bz -
bz s
bz ,
bz I
0y"
b1 x"
b1 +#
0}"
08
0O"
b1 N"
b1 _"
0S"
09
0%"
b1 $"
b1 5"
0)"
0:
0Y
b1 X
b1 i
0]
0;
b1 w"
b1 M"
b1 #"
b1 W
b1111 +
1%
#160000
b10000 +
0%
#170000
b0 ,
b0 I
b0 -
b0 s
b0 .
b0 ?"
b0 /
b0 i"
1]
1Y
1;
b1 ?
b1 Q
1)"
1%"
1:
b1 >
b1 {
1S"
1O"
19
b1 =
b1 G"
1}"
1y"
18
b1 <
b1 q"
b10001 +
1%
#180000
b10010 +
0%
#190000
b10 *#
b10 ^"
b10 4"
b10 h
bz /
bz i"
bz .
bz ?"
bz -
bz s
bz ,
bz I
b1010000000000000 C
b1010000000000000 B
b1010000000000000 A
b1010000000000000 @
0y"
b10 x"
b10 +#
0}"
08
0O"
b10 N"
b10 _"
0S"
09
0%"
b10 $"
b10 5"
0)"
0:
0Y
b10 X
b10 i
0]
0;
b10 w"
b10 M"
b10 #"
b10 W
b10011 +
1%
#200000
b10100 +
0%
#210000
b1010000000000000 ,
b1010000000000000 I
b1010000000000000 -
b1010000000000000 s
b1010000000000000 .
b1010000000000000 ?"
b1010000000000000 /
b1010000000000000 i"
1]
1Y
1;
b10 ?
b10 Q
1)"
1%"
1:
b10 >
b10 {
1S"
1O"
19
b10 =
b10 G"
1}"
1y"
18
b10 <
b10 q"
b10101 +
1%
#220000
b10110 +
0%
#230000
b11 *#
b11 ^"
b11 4"
b11 h
bz /
bz i"
bz .
bz ?"
bz -
bz s
bz ,
bz I
b1010000100000001 C
b1010000100000001 B
b1010000100000001 A
b1010000100000001 @
0y"
b11 x"
b11 +#
0}"
08
0O"
b11 N"
b11 _"
0S"
09
0%"
b11 $"
b11 5"
0)"
0:
0Y
b11 X
b11 i
0]
0;
b11 w"
b11 M"
b11 #"
b11 W
b10111 +
1%
#240000
b11000 +
0%
#250000
b1010000100000001 ,
b1010000100000001 I
b1010000100000001 -
b1010000100000001 s
b1010000100000001 .
b1010000100000001 ?"
b1010000100000001 /
b1010000100000001 i"
1]
1Y
1;
b11 ?
b11 Q
1)"
1%"
1:
b11 >
b11 {
1S"
1O"
19
b11 =
b11 G"
1}"
1y"
18
b11 <
b11 q"
b11001 +
1%
#260000
b11010 +
0%
#270000
b100 *#
b100 ^"
b100 4"
b100 h
bz /
bz i"
bz .
bz ?"
bz -
bz s
bz ,
bz I
b1010001000001010 C
b1010001000001010 B
b1010001000001010 A
b1010001000001010 @
0y"
b100 x"
b100 +#
0}"
08
0O"
b100 N"
b100 _"
0S"
09
0%"
b100 $"
b100 5"
0)"
0:
0Y
b100 X
b100 i
0]
0;
b100 w"
b100 M"
b100 #"
b100 W
b11011 +
1%
#280000
b11100 +
0%
#290000
b1010001000001010 ,
b1010001000001010 I
b1010001000001010 -
b1010001000001010 s
b1010001000001010 .
b1010001000001010 ?"
b1010001000001010 /
b1010001000001010 i"
1]
1Y
1;
b100 ?
b100 Q
1)"
1%"
1:
b100 >
b100 {
1S"
1O"
19
b100 =
b100 G"
1}"
1y"
18
b100 <
b100 q"
b11101 +
1%
#300000
b11110 +
0%
#310000
b101 *#
b101 ^"
b101 4"
b101 h
bz /
bz i"
bz .
bz ?"
bz -
bz s
bz ,
bz I
b1010001100000000 C
b1010001100000000 B
b1010001100000000 A
b1010001100000000 @
0y"
b101 x"
b101 +#
0}"
08
0O"
b101 N"
b101 _"
0S"
09
0%"
b101 $"
b101 5"
0)"
0:
0Y
b101 X
b101 i
0]
0;
b101 w"
b101 M"
b101 #"
b101 W
b11111 +
1%
#320000
b100000 +
0%
#330000
b1010001100000000 ,
b1010001100000000 I
b1010001100000000 -
b1010001100000000 s
b1010001100000000 .
b1010001100000000 ?"
b1010001100000000 /
b1010001100000000 i"
1]
1Y
1;
b101 ?
b101 Q
1)"
1%"
1:
b101 >
b101 {
1S"
1O"
19
b101 =
b101 G"
1}"
1y"
18
b101 <
b101 q"
b100001 +
1%
#340000
b100010 +
0%
#350000
b110 *#
b110 ^"
b110 4"
b110 h
bz /
bz i"
bz .
bz ?"
bz -
bz s
bz ,
bz I
b1010010000000000 C
b1010010000000000 B
b1010010000000000 A
b1010010000000000 @
0y"
b110 x"
b110 +#
0}"
08
0O"
b110 N"
b110 _"
0S"
09
0%"
b110 $"
b110 5"
0)"
0:
0Y
b110 X
b110 i
0]
0;
b110 w"
b110 M"
b110 #"
b110 W
b100011 +
1%
#360000
b100100 +
0%
#370000
b1010010000000000 ,
b1010010000000000 I
b1010010000000000 -
b1010010000000000 s
b1010010000000000 .
b1010010000000000 ?"
b1010010000000000 /
b1010010000000000 i"
1]
1Y
1;
b110 ?
b110 Q
1)"
1%"
1:
b110 >
b110 {
1S"
1O"
19
b110 =
b110 G"
1}"
1y"
18
b110 <
b110 q"
b100101 +
1%
#380000
b100110 +
0%
#390000
b111 *#
b111 ^"
b111 4"
b111 h
bz /
bz i"
bz .
bz ?"
bz -
bz s
bz ,
bz I
b1010010100000000 C
b1010010100000000 B
b1010010100000000 A
b1010010100000000 @
0y"
b111 x"
b111 +#
0}"
08
0O"
b111 N"
b111 _"
0S"
09
0%"
b111 $"
b111 5"
0)"
0:
0Y
b111 X
b111 i
0]
0;
b111 w"
b111 M"
b111 #"
b111 W
b100111 +
1%
#400000
b101000 +
0%
#410000
b1010010100000000 ,
b1010010100000000 I
b1010010100000000 -
b1010010100000000 s
b1010010100000000 .
b1010010100000000 ?"
b1010010100000000 /
b1010010100000000 i"
1]
1Y
1;
b111 ?
b111 Q
1)"
1%"
1:
b111 >
b111 {
1S"
1O"
19
b111 =
b111 G"
1}"
1y"
18
b111 <
b111 q"
b101001 +
1%
#420000
b101010 +
0%
#430000
b1000 *#
b1000 ^"
b1000 4"
b1000 h
bz /
bz i"
bz .
bz ?"
bz -
bz s
bz ,
bz I
b10001000000001 C
b10001000000001 B
b10001000000001 A
b10001000000001 @
0y"
b1000 x"
b1000 +#
0}"
08
0O"
b1000 N"
b1000 _"
0S"
09
0%"
b1000 $"
b1000 5"
0)"
0:
0Y
b1000 X
b1000 i
0]
0;
b1000 w"
b1000 M"
b1000 #"
b1000 W
b101011 +
1%
#440000
b101100 +
0%
#450000
b10001000000001 ,
b10001000000001 I
b10001000000001 -
b10001000000001 s
b10001000000001 .
b10001000000001 ?"
b10001000000001 /
b10001000000001 i"
1]
1Y
1;
b1000 ?
b1000 Q
1)"
1%"
1:
b1000 >
b1000 {
1S"
1O"
19
b1000 =
b1000 G"
1}"
1y"
18
b1000 <
b1000 q"
b101101 +
1%
#460000
b101110 +
0%
#470000
b1001 *#
b1001 ^"
b1001 4"
b1001 h
bz /
bz i"
bz .
bz ?"
bz -
bz s
bz ,
bz I
b10001100000010 C
b10001100000010 B
b10001100000010 A
b10001100000010 @
0y"
b1001 x"
b1001 +#
0}"
08
0O"
b1001 N"
b1001 _"
0S"
09
0%"
b1001 $"
b1001 5"
0)"
0:
0Y
b1001 X
b1001 i
0]
0;
b1001 w"
b1001 M"
b1001 #"
b1001 W
b101111 +
1%
#480000
b110000 +
0%
#490000
b10001100000010 ,
b10001100000010 I
b10001100000010 -
b10001100000010 s
b10001100000010 .
b10001100000010 ?"
b10001100000010 /
b10001100000010 i"
1]
1Y
1;
b1001 ?
b1001 Q
1)"
1%"
1:
b1001 >
b1001 {
1S"
1O"
19
b1001 =
b1001 G"
1}"
1y"
18
b1001 <
b1001 q"
b110001 +
1%
#500000
b110010 +
0%
#510000
b1010 *#
b1010 ^"
b1010 4"
b1010 h
bz /
bz i"
bz .
bz ?"
bz -
bz s
bz ,
bz I
b1010010000000001 C
b1010010000000001 B
b1010010000000001 A
b1010010000000001 @
0y"
b1010 x"
b1010 +#
0}"
08
0O"
b1010 N"
b1010 _"
0S"
09
0%"
b1010 $"
b1010 5"
0)"
0:
0Y
b1010 X
b1010 i
0]
0;
b1010 w"
b1010 M"
b1010 #"
b1010 W
b110011 +
1%
#520000
b110100 +
0%
#530000
b1010010000000001 ,
b1010010000000001 I
b1010010000000001 -
b1010010000000001 s
b1010010000000001 .
b1010010000000001 ?"
b1010010000000001 /
b1010010000000001 i"
1]
1Y
1;
b1010 ?
b1010 Q
1)"
1%"
1:
b1010 >
b1010 {
1S"
1O"
19
b1010 =
b1010 G"
1}"
1y"
18
b1010 <
b1010 q"
b110101 +
1%
#540000
b110110 +
0%
#550000
b1011 *#
b1011 ^"
b1011 4"
b1011 h
bz /
bz i"
bz .
bz ?"
bz -
bz s
bz ,
bz I
b110000001000000 C
b110000001000000 B
b110000001000000 A
b110000001000000 @
0y"
b1011 x"
b1011 +#
0}"
08
0O"
b1011 N"
b1011 _"
0S"
09
0%"
b1011 $"
b1011 5"
0)"
0:
0Y
b1011 X
b1011 i
0]
0;
b1011 w"
b1011 M"
b1011 #"
b1011 W
b110111 +
1%
#560000
b111000 +
0%
#570000
b110000001000000 ,
b110000001000000 I
b110000001000000 -
b110000001000000 s
b110000001000000 .
b110000001000000 ?"
b110000001000000 /
b110000001000000 i"
1]
1Y
1;
b1011 ?
b1011 Q
1)"
1%"
1:
b1011 >
b1011 {
1S"
1O"
19
b1011 =
b1011 G"
1}"
1y"
18
b1011 <
b1011 q"
b111001 +
1%
#580000
b111010 +
0%
#590000
b1100 *#
b1100 ^"
b1100 4"
b1100 h
bz /
bz i"
bz .
bz ?"
bz -
bz s
bz ,
bz I
b1100000000000011 C
b1100000000000011 B
b1100000000000011 A
b1100000000000011 @
0y"
b1100 x"
b1100 +#
0}"
08
0O"
b1100 N"
b1100 _"
0S"
09
0%"
b1100 $"
b1100 5"
0)"
0:
0Y
b1100 X
b1100 i
0]
0;
b1100 w"
b1100 M"
b1100 #"
b1100 W
b111011 +
1%
#600000
b111100 +
0%
#610000
b1100000000000011 ,
b1100000000000011 I
b1100000000000011 -
b1100000000000011 s
b1100000000000011 .
b1100000000000011 ?"
b1100000000000011 /
b1100000000000011 i"
1]
1Y
1;
b1100 ?
b1100 Q
1)"
1%"
1:
b1100 >
b1100 {
1S"
1O"
19
b1100 =
b1100 G"
1}"
1y"
18
b1100 <
b1100 q"
b111101 +
1%
#620000
b111110 +
0%
#630000
b1101 *#
b1101 ^"
b1101 4"
b1101 h
bz /
bz i"
bz .
bz ?"
bz -
bz s
bz ,
bz I
b10010100000011 C
b10010100000011 B
b10010100000011 A
b10010100000011 @
0y"
b1101 x"
b1101 +#
0}"
08
0O"
b1101 N"
b1101 _"
0S"
09
0%"
b1101 $"
b1101 5"
0)"
0:
0Y
b1101 X
b1101 i
0]
0;
b1101 w"
b1101 M"
b1101 #"
b1101 W
b111111 +
1%
#640000
b1000000 +
0%
#650000
b10010100000011 ,
b10010100000011 I
b10010100000011 -
b10010100000011 s
b10010100000011 .
b10010100000011 ?"
b10010100000011 /
b10010100000011 i"
1]
1Y
1;
b1101 ?
b1101 Q
1)"
1%"
1:
b1101 >
b1101 {
1S"
1O"
19
b1101 =
b1101 G"
1}"
1y"
18
b1101 <
b1101 q"
b1000001 +
1%
#660000
b1000010 +
0%
#670000
b1110 *#
b1110 ^"
b1110 4"
b1110 h
bz /
bz i"
bz .
bz ?"
bz -
bz s
bz ,
bz I
b1100000000000010 C
b1100000000000010 B
b1100000000000010 A
b1100000000000010 @
0y"
b1110 x"
b1110 +#
0}"
08
0O"
b1110 N"
b1110 _"
0S"
09
0%"
b1110 $"
b1110 5"
0)"
0:
0Y
b1110 X
b1110 i
0]
0;
b1110 w"
b1110 M"
b1110 #"
b1110 W
b1000011 +
1%
#680000
b1000100 +
0%
#690000
b1100000000000010 ,
b1100000000000010 I
b1100000000000010 -
b1100000000000010 s
b1100000000000010 .
b1100000000000010 ?"
b1100000000000010 /
b1100000000000010 i"
1]
1Y
1;
b1110 ?
b1110 Q
1)"
1%"
1:
b1110 >
b1110 {
1S"
1O"
19
b1110 =
b1110 G"
1}"
1y"
18
b1110 <
b1110 q"
b1000101 +
1%
#700000
b1000110 +
0%
#710000
b1111 *#
b1111 ^"
b1111 4"
b1111 h
bz /
bz i"
bz .
bz ?"
bz -
bz s
bz ,
bz I
b11010100000011 C
b11010100000011 B
b11010100000011 A
b11010100000011 @
0y"
b1111 x"
b1111 +#
0}"
08
0O"
b1111 N"
b1111 _"
0S"
09
0%"
b1111 $"
b1111 5"
0)"
0:
0Y
b1111 X
b1111 i
0]
0;
b1111 w"
b1111 M"
b1111 #"
b1111 W
b1000111 +
1%
#720000
b1001000 +
0%
#730000
b11010100000011 ,
b11010100000011 I
b11010100000011 -
b11010100000011 s
b11010100000011 .
b11010100000011 ?"
b11010100000011 /
b11010100000011 i"
1]
1Y
1;
b1111 ?
b1111 Q
1)"
1%"
1:
b1111 >
b1111 {
1S"
1O"
19
b1111 =
b1111 G"
1}"
1y"
18
b1111 <
b1111 q"
b1001001 +
1%
#740000
b1001010 +
0%
#750000
b10000 *#
b10000 ^"
b10000 4"
b10000 h
bz /
bz i"
bz .
bz ?"
bz -
bz s
bz ,
bz I
b11000000100000 C
b11000000100000 B
b11000000100000 A
b11000000100000 @
0y"
b10000 x"
b10000 +#
0}"
08
0O"
b10000 N"
b10000 _"
0S"
09
0%"
b10000 $"
b10000 5"
0)"
0:
0Y
b10000 X
b10000 i
0]
0;
b10000 w"
b10000 M"
b10000 #"
b10000 W
b1001011 +
1%
#760000
b1001100 +
0%
#770000
b11000000100000 ,
b11000000100000 I
b11000000100000 -
b11000000100000 s
b11000000100000 .
b11000000100000 ?"
b11000000100000 /
b11000000100000 i"
1]
1Y
1;
b10000 ?
b10000 Q
1)"
1%"
1:
b10000 >
b10000 {
1S"
1O"
19
b10000 =
b10000 G"
1}"
1y"
18
b10000 <
b10000 q"
b1001101 +
1%
#780000
b1001110 +
0%
#790000
b10001 *#
b10001 ^"
b10001 4"
b10001 h
bz /
bz i"
bz .
bz ?"
bz -
bz s
bz ,
bz I
b1100000000000010 C
b1100000000000010 B
b1100000000000010 A
b1100000000000010 @
0y"
b10001 x"
b10001 +#
0}"
08
0O"
b10001 N"
b10001 _"
0S"
09
0%"
b10001 $"
b10001 5"
0)"
0:
0Y
b10001 X
b10001 i
0]
0;
b10001 w"
b10001 M"
b10001 #"
b10001 W
b1001111 +
1%
#800000
b1010000 +
0%
#810000
b1100000000000010 ,
b1100000000000010 I
b1100000000000010 -
b1100000000000010 s
b1100000000000010 .
b1100000000000010 ?"
b1100000000000010 /
b1100000000000010 i"
1]
1Y
1;
b10001 ?
b10001 Q
1)"
1%"
1:
b10001 >
b10001 {
1S"
1O"
19
b10001 =
b10001 G"
1}"
1y"
18
b10001 <
b10001 q"
b1010001 +
1%
#820000
b1010010 +
0%
#830000
b10010 *#
b10010 ^"
b10010 4"
b10010 h
bz /
bz i"
bz .
bz ?"
bz -
bz s
bz ,
bz I
b1100000011110000 C
b1100000011110000 B
b1100000011110000 A
b1100000011110000 @
0y"
b10010 x"
b10010 +#
0}"
08
0O"
b10010 N"
b10010 _"
0S"
09
0%"
b10010 $"
b10010 5"
0)"
0:
0Y
b10010 X
b10010 i
0]
0;
b10010 w"
b10010 M"
b10010 #"
b10010 W
b1010011 +
1%
#840000
b1010100 +
0%
#850000
b1100000011110000 ,
b1100000011110000 I
b1100000011110000 -
b1100000011110000 s
b1100000011110000 .
b1100000011110000 ?"
b1100000011110000 /
b1100000011110000 i"
1]
1Y
1;
b10010 ?
b10010 Q
1)"
1%"
1:
b10010 >
b10010 {
1S"
1O"
19
b10010 =
b10010 G"
1}"
1y"
18
b10010 <
b10010 q"
b1010101 +
1%
#860000
b1010110 +
0%
