processor_withbranch_prediction_wrong_behavour/src/system.vcd
$date
	Fri Apr  4 07:28:27 2025
$end
$version
	Icarus Verilog
$end
$timescale
	1ps
$end
$scope module system $end
$var wire 16 ! DATA [15:0] $end
$var wire 1 " WR $end
$var wire 1 # RD $end
$var wire 16 $ ADDR [15:0] $end
$var reg 1 % CLK $end
$var reg 16 & DATAO [15:0] $end
$var reg 1 ' RES $end
$var reg 1 ( predict_valid $end
$var reg 8 ) train_history [7:0] $end
$var reg 1 * train_mispredicted $end
$var reg 16 + train_pc [15:0] $end
$var reg 1 , train_taken $end
$var reg 1 - train_valid $end
$var integer 32 . i [31:0] $end
$var integer 32 / j [31:0] $end
$scope module uut $end
$var wire 1 % CLK $end
$var wire 16 0 DATA [15:0] $end
$var wire 1 ' RES $end
$var wire 1 1 predict_taken $end
$var wire 8 2 predict_history [7:0] $end
$var wire 4 3 SREG [3:0] $end
$var wire 4 4 OPTS [3:0] $end
$var wire 4 5 OPCODE [3:0] $end
$var wire 8 6 IMM [7:0] $end
$var wire 4 7 DREG [3:0] $end
$var reg 16 8 ADDR [15:0] $end
$var reg 16 9 DOUT [15:0] $end
$var reg 16 : IR [15:0] $end
$var reg 1 ; MEM_ACCESS $end
$var reg 16 < MEM_ADDR [15:0] $end
$var reg 16 = MEM_DATA [15:0] $end
$var reg 16 > NEXT_PC [15:0] $end
$var reg 16 ? PC [15:0] $end
$var reg 1 # RD $end
$var reg 1 @ STAGE $end
$var reg 1 " WR $end
$var reg 16 A branch_target [15:0] $end
$var reg 1 B is_branch $end
$var reg 16 C next_sequential_pc [15:0] $end
$var reg 1 D predict_valid $end
$var reg 8 E prev_history [7:0] $end
$var reg 16 F prev_pc [15:0] $end
$var reg 1 G prev_prediction $end
$var reg 8 H train_history [7:0] $end
$var reg 1 I train_mispredicted $end
$var reg 16 J train_pc [15:0] $end
$var reg 1 K train_taken $end
$var reg 1 L train_valid $end
$var integer 32 M i [31:0] $end
$scope module bp $end
$var wire 1 % CLK $end
$var wire 1 ' RES $end
$var wire 8 N predict_history [7:0] $end
$var wire 8 O predict_index [7:0] $end
$var wire 16 P predict_pc [15:0] $end
$var wire 1 D predict_valid $end
$var wire 8 Q train_history [7:0] $end
$var wire 8 R train_index [7:0] $end
$var wire 1 I train_mispredicted $end
$var wire 16 S train_pc [15:0] $end
$var wire 1 K train_taken $end
$var wire 1 L train_valid $end
$var wire 1 1 predict_taken $end
$var parameter 2 T STRONGLY_NOT_TAKEN $end
$var parameter 2 U STRONGLY_TAKEN $end
$var parameter 2 V WEAKLY_NOT_TAKEN $end
$var parameter 2 W WEAKLY_TAKEN $end
$var reg 8 X branch_history [7:0] $end
$var integer 32 Y i [31:0] $end
$upscope $end
$upscope $end
$upscope $end
$enddefinitions $end
$comment Show the parameter values. $end
$dumpall
b10 W
b1 V
b11 U
b0 T
$end
#0
$dumpvars
bx Y
bx X
b0 S
b0 R
b0 Q
b0 P
bx O
bx N
b10000 M
0L
0K
b0 J
0I
b0 H
0G
b0 F
b0 E
0D
b0 C
0B
b0 A
0@
b0 ?
bx >
b0 =
b0 <
0;
b0 :
b0 9
bx 8
b0 7
b0 6
b0 5
b0 4
b0 3
bx 2
01
bx 0
b10000000000 /
b0 .
0-
0,
b0 +
0*
b0 )
0(
0'
b0 &
0%
bx $
x#
x"
bx !
$end
#10000
b0 O
bz !
bz 0
b0 2
b0 N
b0 X
0"
0#
b100000000 Y
b1 .
1%
#20000
b10 .
0%
#30000
b100000000 Y
b11 .
1%
#40000
b100 .
0%
#50000
b100000000 Y
b101 .
1%
#60000
b110 .
0%
#70000
b100000000 Y
b111 .
1%
#80000
b1000 .
0%
#90000
b100000000 Y
b1001 .
1%
#100000
b1010 .
0%
#110000
b100000000 Y
b1011 .
1%
#120000
b1100 .
1'
0%
#130000
bz 5
bz 7
bz 3
bz 4
bz 6
b0 !
b0 0
1D
1@
bz :
1#
b0 $
b0 8
b1101 .
1%
#140000
b1110 .
0%
#150000
b1 O
bz !
bz 0
0@
b1 ?
b1 P
0D
0#
b1 >
b1111 .
1%
#160000
b10000 .
0%
#170000
b0 !
b0 0
1D
1@
1#
b1 $
b1 8
b10001 .
1%
#180000
b10010 .
0%
#190000
b10 O
bz !
bz 0
b1010000000000000 &
0@
b10 ?
b10 P
0D
0#
b10 >
b10011 .
1%
#200000
b10100 .
0%
#210000
b1010000000000000 !
b1010000000000000 0
1D
1@
1#
b10 $
b10 8
b10101 .
1%
#220000
b10110 .
0%
#230000
b11 O
bz !
bz 0
b1010000100000001 &
0@
b11 ?
b11 P
0D
0#
b11 >
b10111 .
1%
#240000
b11000 .
0%
#250000
b1010000100000001 !
b1010000100000001 0
1D
1@
1#
b11 $
b11 8
b11001 .
1%
#260000
b11010 .
0%
#270000
b100 O
bz !
bz 0
b1010001000001010 &
0@
b100 ?
b100 P
0D
0#
b100 >
b11011 .
1%
#280000
b11100 .
0%
#290000
b1010001000001010 !
b1010001000001010 0
1D
1@
1#
b100 $
b100 8
b11101 .
1%
#300000
b11110 .
0%
#310000
b101 O
bz !
bz 0
b1010001100000000 &
0@
b101 ?
b101 P
0D
0#
b101 >
b11111 .
1%
#320000
b100000 .
0%
#330000
b1010001100000000 !
b1010001100000000 0
1D
1@
1#
b101 $
b101 8
b100001 .
1%
#340000
b100010 .
0%
#350000
b110 O
bz !
bz 0
b1010010000000000 &
0@
b110 ?
b110 P
0D
0#
b110 >
b100011 .
1%
#360000
b100100 .
0%
#370000
b1010010000000000 !
b1010010000000000 0
1D
1@
1#
b110 $
b110 8
b100101 .
1%
#380000
b100110 .
0%
#390000
b111 O
bz !
bz 0
b1010010100000000 &
0@
b111 ?
b111 P
0D
0#
b111 >
b100111 .
1%
#400000
b101000 .
0%
#410000
b1010010100000000 !
b1010010100000000 0
1D
1@
1#
b111 $
b111 8
b101001 .
1%
#420000
b101010 .
0%
#430000
b1000 O
bz !
bz 0
b10001000000001 &
0@
b1000 ?
b1000 P
0D
0#
b1000 >
b101011 .
1%
#440000
b101100 .
0%
#450000
b10001000000001 !
b10001000000001 0
1D
1@
1#
b1000 $
b1000 8
b101101 .
1%
#460000
b101110 .
0%
#470000
b1001 O
bz !
bz 0
b10001100000010 &
0@
b1001 ?
b1001 P
0D
0#
b1001 >
b101111 .
1%
#480000
b110000 .
0%
#490000
b10001100000010 !
b10001100000010 0
1D
1@
1#
b1001 $
b1001 8
b110001 .
1%
#500000
b110010 .
0%
#510000
b1010 O
bz !
bz 0
b1010010000000001 &
0@
b1010 ?
b1010 P
0D
0#
b1010 >
b110011 .
1%
#520000
b110100 .
0%
#530000
b1010010000000001 !
b1010010000000001 0
1D
1@
1#
b1010 $
b1010 8
b110101 .
1%
#540000
b110110 .
0%
#550000
b1011 O
bz !
bz 0
b110000001000000 &
0@
b1011 ?
b1011 P
0D
0#
b1011 >
b110111 .
1%
#560000
b111000 .
0%
#570000
b110000001000000 !
b110000001000000 0
1D
1@
1#
b1011 $
b1011 8
b111001 .
1%
#580000
b111010 .
0%
#590000
b1100 O
bz !
bz 0
b1100000000000011 &
0@
b1100 ?
b1100 P
0D
0#
b1100 >
b111011 .
1%
#600000
b111100 .
0%
#610000
b1100000000000011 !
b1100000000000011 0
1D
1@
1#
b1100 $
b1100 8
b111101 .
1%
#620000
b111110 .
0%
#630000
b1101 O
bz !
bz 0
b10010100000011 &
0@
b1101 ?
b1101 P
0D
0#
b1101 >
b111111 .
1%
#640000
b1000000 .
0%
#650000
b10010100000011 !
b10010100000011 0
1D
1@
1#
b1101 $
b1101 8
b1000001 .
1%
#660000
b1000010 .
0%
#670000
b1110 O
bz !
bz 0
b1100000000000010 &
0@
b1110 ?
b1110 P
0D
0#
b1110 >
b1000011 .
1%
#680000
b1000100 .
0%
#690000
b1100000000000010 !
b1100000000000010 0
1D
1@
1#
b1110 $
b1110 8
b1000101 .
1%
#700000
b1000110 .
0%
#710000
b1111 O
bz !
bz 0
b11010100000011 &
0@
b1111 ?
b1111 P
0D
0#
b1111 >
b1000111 .
1%
#720000
b1001000 .
0%
#730000
b11010100000011 !
b11010100000011 0
1D
1@
1#
b1111 $
b1111 8
b1001001 .
1%
#740000
b1001010 .
0%
#750000
b10000 O
bz !
bz 0
b11000000100000 &
0@
b10000 ?
b10000 P
0D
0#
b10000 >
b1001011 .
1%
#760000
b1001100 .
0%
#770000
b11000000100000 !
b11000000100000 0
1D
1@
1#
b10000 $
b10000 8
b1001101 .
1%
#780000
b1001110 .
0%
#790000
b10001 O
bz !
bz 0
b1100000000000010 &
0@
b10001 ?
b10001 P
0D
0#
b10001 >
b1001111 .
1%
#800000
b1010000 .
0%
#810000
b1100000000000010 !
b1100000000000010 0
1D
1@
1#
b10001 $
b10001 8
b1010001 .
1%
#820000
b1010010 .
0%
#830000
b10010 O
bz !
bz 0
b1100000011110000 &
0@
b10010 ?
b10010 P
0D
0#
b10010 >
b1010011 .
1%
#840000
b1010100 .
0%
#850000
b1100000011110000 !
b1100000011110000 0
1D
1@
1#
b10010 $
b10010 8
b1010101 .
1%
#860000
b1010110 .
0%
#870000
b10011 O
bz !
bz 0
b0 &
0@
b10011 ?
b10011 P
0D
0#
b10011 >
b1010111 .
1%
#880000
b1011000 .
0%
#890000
b0 !
b0 0
1D
1@
1#
b10011 $
b10011 8
b1011001 .
1%
#900000
b1011010 .
0%
#910000
b10100 O
bz !
bz 0
0@
b10100 ?
b10100 P
0D
0#
b10100 >
b1011011 .
1%
#920000
b1011100 .
0%
#930000
b0 !
b0 0
1D
1@
1#
b10100 $
b10100 8
b1011101 .
1%
#940000
b1011110 .
0%
#950000
b10101 O
bz !
bz 0
b1010000000010000 &
0@
b10101 ?
b10101 P
0D
0#
b10101 >
b1011111 .
1%
#960000
b1100000 .
0%
#970000
b1010000000010000 !
b1010000000010000 0
1D
1@
1#
b10101 $
b10101 8
b1100001 .
1%
#980000
b1100010 .
0%
#990000
b10110 O
bz !
bz 0
b1010000100000001 &
0@
b10110 ?
b10110 P
0D
0#
b10110 >
b1100011 .
1%
#1000000
b1100100 .
0%
#1010000
b1010000100000001 !
b1010000100000001 0
1D
1@
1#
b10110 $
b10110 8
b1100101 .
1%
#1020000
b1100110 .
0%
#1030000
b10111 O
bz !
bz 0
b11000000010000 &
0@
b10111 ?
b10111 P
0D
0#
b10111 >
b1100111 .
1%
#1040000
b1101000 .
0%
#1050000
b11000000010000 !
b11000000010000 0
1D
1@
1#
b10111 $
b10111 8
b1101001 .
1%
#1060000
b1101010 .
0%
#1070000
b11000 O
bz !
bz 0
b110000001000000 &
0@
b11000 ?
b11000 P
0D
0#
b11000 >
b1101011 .
1%
#1080000
b1101100 .
0%
#1090000
b110000001000000 !
b110000001000000 0
1D
1@
1#
b11000 $
b11000 8
b1101101 .
1%
#1100000
b1101110 .
0%
#1110000
b11001 O
bz !
bz 0
b1100000000000010 &
0@
b11001 ?
b11001 P
0D
0#
b11001 >
b1101111 .
1%
#1120000
b1110000 .
0%
#1130000
b1100000000000010 !
b1100000000000010 0
1D
1@
1#
b11001 $
b11001 8
b1110001 .
1%
#1140000
b1110010 .
0%
#1150000
b11010 O
bz !
bz 0
0@
b11010 ?
b11010 P
0D
0#
b11010 >
b1110011 .
1%
#1160000
b1110100 .
0%
#1170000
b1100000000000010 !
b1100000000000010 0
1D
1@
1#
b11010 $
b11010 8
b1110101 .
1%
#1180000
b1110110 .
0%
#1190000
b11011 O
bz !
bz 0
b1100000000000001 &
0@
b11011 ?
b11011 P
0D
0#
b11011 >
b1110111 .
1%
#1200000
b1111000 .
0%
#1210000
b1100000000000001 !
b1100000000000001 0
1D
1@
1#
b11011 $
b11011 8
b1111001 .
1%
#1220000
b1111010 .
0%
#1230000
b11100 O
bz !
bz 0
b0 &
0@
b11100 ?
b11100 P
0D
0#
b11100 >
b1111011 .
1%
#1240000
b1111100 .
0%
#1250000
b0 !
b0 0
1D
1@
1#
b11100 $
b11100 8
b1111101 .
1%
#1260000
b1111110 .
0%
#1270000
b11101 O
bz !
bz 0
b1111000011111001 &
0@
b11101 ?
b11101 P
0D
0#
b11101 >
b1111111 .
1%
#1280000
b10000000 .
0%
#1290000
b1111000011111001 !
b1111000011111001 0
1D
1@
1#
b11101 $
b11101 8
b10000001 .
1%
#1300000
b10000010 .
0%
#1310000
b11110 O
bz !
bz 0
b0 &
0@
b11110 ?
b11110 P
0D
0#
b11110 >
b10000011 .
1%
#1320000
b10000100 .
0%
#1330000
b0 !
b0 0
1D
1@
1#
b11110 $
b11110 8
b10000101 .
1%
#1340000
b10000110 .
0%
#1350000
b11111 O
bz !
bz 0
0@
b11111 ?
b11111 P
0D
0#
b11111 >
b10000111 .
1%
#1360000
b10001000 .
0%
#1370000
b0 !
b0 0
1D
1@
1#
b11111 $
b11111 8
b10001001 .
1%
#1380000
b10001010 .
0%
#1390000
b100000 O
bz !
bz 0
0@
b100000 ?
b100000 P
0D
0#
b100000 >
b10001011 .
1%
#1400000
b10001100 .
0%
#1410000
b0 !
b0 0
1D
1@
1#
b100000 $
b100000 8
b10001101 .
1%
#1420000
b10001110 .
0%
#1430000
b100001 O
bz !
bz 0
0@
b100001 ?
b100001 P
0D
0#
b100001 >
b10001111 .
1%
#1440000
b10010000 .
0%
#1450000
b0 !
b0 0
1D
1@
1#
b100001 $
b100001 8
b10010001 .
1%
#1460000
b10010010 .
0%
#1470000
b100010 O
bz !
bz 0
0@
b100010 ?
b100010 P
0D
0#
b100010 >
b10010011 .
1%
#1480000
b10010100 .
0%
#1490000
b0 !
b0 0
1D
1@
1#
b100010 $
b100010 8
b10010101 .
1%
#1500000
b10010110 .
0%
#1510000
b100011 O
bz !
bz 0
0@
b100011 ?
b100011 P
0D
0#
b100011 >
b10010111 .
1%
#1520000
b10011000 .
0%
#1530000
b0 !
b0 0
1D
1@
1#
b100011 $
b100011 8
b10011001 .
1%
#1540000
b10011010 .
0%
#1550000
b100100 O
bz !
bz 0
0@
b100100 ?
b100100 P
0D
0#
b100100 >
b10011011 .
1%
#1560000
b10011100 .
0%
#1570000
b0 !
b0 0
1D
1@
1#
b100100 $
b100100 8
b10011101 .
1%
#1580000
b10011110 .
0%
#1590000
b100101 O
bz !
bz 0
0@
b100101 ?
b100101 P
0D
0#
b100101 >
b10011111 .
1%
#1600000
b10100000 .
0%
#1610000
b0 !
b0 0
1D
1@
1#
b100101 $
b100101 8
b10100001 .
1%
#1620000
b10100010 .
0%
#1630000
b100110 O
bz !
bz 0
0@
b100110 ?
b100110 P
0D
0#
b100110 >
b10100011 .
1%
#1640000
b10100100 .
0%
#1650000
b0 !
b0 0
1D
1@
1#
b100110 $
b100110 8
b10100101 .
1%
#1660000
b10100110 .
0%
#1670000
b100111 O
bz !
bz 0
0@
b100111 ?
b100111 P
0D
0#
b100111 >
b10100111 .
1%
#1680000
b10101000 .
0%
#1690000
b0 !
b0 0
1D
1@
1#
b100111 $
b100111 8
b10101001 .
1%
#1700000
b10101010 .
0%
#1710000
b101000 O
bz !
bz 0
0@
b101000 ?
b101000 P
0D
0#
b101000 >
b10101011 .
1%
#1720000
b10101100 .
0%
#1730000
b0 !
b0 0
1D
1@
1#
b101000 $
b101000 8
b10101101 .
1%
#1740000
b10101110 .
0%
#1750000
b101001 O
bz !
bz 0
0@
b101001 ?
b101001 P
0D
0#
b101001 >
b10101111 .
1%
#1760000
b10110000 .
0%
#1770000
b0 !
b0 0
1D
1@
1#
b101001 $
b101001 8
b10110001 .
1%
#1780000
b10110010 .
0%
#1790000
b101010 O
bz !
bz 0
0@
b101010 ?
b101010 P
0D
0#
b101010 >
b10110011 .
1%
#1800000
b10110100 .
0%
#1810000
b0 !
b0 0
1D
1@
1#
b101010 $
b101010 8
b10110101 .
1%
#1820000
b10110110 .
0%
#1830000
b101011 O
bz !
bz 0
0@
b101011 ?
b101011 P
0D
0#
b101011 >
b10110111 .
1%
#1840000
b10111000 .
0%
#1850000
b0 !
b0 0
1D
1@
1#
b101011 $
b101011 8
b10111001 .
1%
#1860000
b10111010 .
0%
#1870000
b101100 O
bz !
bz 0
0@
b101100 ?
b101100 P
0D
0#
b101100 >
b10111011 .
1%
#1880000
b10111100 .
0%
#1890000
b0 !
b0 0
1D
1@
1#
b101100 $
b101100 8
b10111101 .
1%
#1900000
b10111110 .
0%
#1910000
b101101 O
bz !
bz 0
0@
b101101 ?
b101101 P
0D
0#
b101101 >
b10111111 .
1%
#1920000
b11000000 .
0%
#1930000
b0 !
b0 0
1D
1@
1#
b101101 $
b101101 8
b11000001 .
1%
#1940000
b11000010 .
0%
#1950000
b101110 O
bz !
bz 0
0@
b101110 ?
b101110 P
0D
0#
b101110 >
b11000011 .
1%
#1960000
b11000100 .
0%
#1970000
b0 !
b0 0
1D
1@
1#
b101110 $
b101110 8
b11000101 .
1%
#1980000
b11000110 .
0%
#1990000
b101111 O
bz !
bz 0
0@
b101111 ?
b101111 P
0D
0#
b101111 >
b11000111 .
1%
#2000000
b11001000 .
0%
#2010000
b0 !
b0 0
1D
1@
1#
b101111 $
b101111 8
b11001001 .
1%
#2020000
b11001010 .
0%
#2030000
b110000 O
bz !
bz 0
0@
b110000 ?
b110000 P
0D
0#
b110000 >
b11001011 .
1%
#2040000
b11001100 .
0%
#2050000
b0 !
b0 0
1D
1@
1#
b110000 $
b110000 8
b11001101 .
1%
#2060000
b11001110 .
0%
#2070000
b110001 O
bz !
bz 0
0@
b110001 ?
b110001 P
0D
0#
b110001 >
b11001111 .
1%
#2080000
b11010000 .
0%
#2090000
b0 !
b0 0
1D
1@
1#
b110001 $
b110001 8
b11010001 .
1%
#2100000
b11010010 .
0%
#2110000
b110010 O
bz !
bz 0
0@
b110010 ?
b110010 P
0D
0#
b110010 >
b11010011 .
1%
#2120000
b11010100 .
0%
#2130000
b0 !
b0 0
1D
1@
1#
b110010 $
b110010 8
b11010101 .
1%
#2140000
b11010110 .
0%
#2150000
b110011 O
bz !
bz 0
0@
b110011 ?
b110011 P
0D
0#
b110011 >
b11010111 .
1%
#2160000
b11011000 .
0%
#2170000
b0 !
b0 0
1D
1@
1#
b110011 $
b110011 8
b11011001 .
1%
#2180000
b11011010 .
0%
#2190000
b110100 O
bz !
bz 0
0@
b110100 ?
b110100 P
0D
0#
b110100 >
b11011011 .
1%
#2200000
b11011100 .
0%
#2210000
b0 !
b0 0
1D
1@
1#
b110100 $
b110100 8
b11011101 .
1%
#2220000
b11011110 .
0%
#2230000
b110101 O
bz !
bz 0
0@
b110101 ?
b110101 P
0D
0#
b110101 >
b11011111 .
1%
#2240000
b11100000 .
0%
#2250000
b0 !
b0 0
1D
1@
1#
b110101 $
b110101 8
b11100001 .
1%
#2260000
b11100010 .
0%
#2270000
b110110 O
bz !
bz 0
0@
b110110 ?
b110110 P
0D
0#
b110110 >
b11100011 .
1%
#2280000
b11100100 .
0%
#2290000
b0 !
b0 0
1D
1@
1#
b110110 $
b110110 8
b11100101 .
1%
#2300000
b11100110 .
0%
#2310000
b110111 O
bz !
bz 0
0@
b110111 ?
b110111 P
0D
0#
b110111 >
b11100111 .
1%
#2320000
b11101000 .
0%
#2330000
b0 !
b0 0
1D
1@
1#
b110111 $
b110111 8
b11101001 .
1%
#2340000
b11101010 .
0%
#2350000
b111000 O
bz !
bz 0
0@
b111000 ?
b111000 P
0D
0#
b111000 >
b11101011 .
1%
#2360000
b11101100 .
0%
#2370000
b0 !
b0 0
1D
1@
1#
b111000 $
b111000 8
b11101101 .
1%
#2380000
b11101110 .
0%
#2390000
b111001 O
bz !
bz 0
0@
b111001 ?
b111001 P
0D
0#
b111001 >
b11101111 .
1%
#2400000
b11110000 .
0%
#2410000
b0 !
b0 0
1D
1@
1#
b111001 $
b111001 8
b11110001 .
1%
#2420000
b11110010 .
0%
#2430000
b111010 O
bz !
bz 0
0@
b111010 ?
b111010 P
0D
0#
b111010 >
b11110011 .
1%
#2440000
b11110100 .
0%
#2450000
b0 !
b0 0
1D
1@
1#
b111010 $
b111010 8
b11110101 .
1%
#2460000
b11110110 .
0%
#2470000
b111011 O
bz !
bz 0
0@
b111011 ?
b111011 P
0D
0#
b111011 >
b11110111 .
1%
#2480000
b11111000 .
0%
#2490000
b0 !
b0 0
1D
1@
1#
b111011 $
b111011 8
b11111001 .
1%
#2500000
b11111010 .
0%
#2510000
b111100 O
bz !
bz 0
0@
b111100 ?
b111100 P
0D
0#
b111100 >
b11111011 .
1%
#2520000
b11111100 .
0%
#2530000
b0 !
b0 0
1D
1@
1#
b111100 $
b111100 8
b11111101 .
1%
#2540000
b11111110 .
0%
#2550000
b111101 O
bz !
bz 0
0@
b111101 ?
b111101 P
0D
0#
b111101 >
b11111111 .
1%
#2560000
b100000000 .
0%
#2570000
b0 !
b0 0
1D
1@
1#
b111101 $
b111101 8
b100000001 .
1%
#2580000
b100000010 .
0%
#2590000
b111110 O
bz !
bz 0
0@
b111110 ?
b111110 P
0D
0#
b111110 >
b100000011 .
1%
#2600000
b100000100 .
0%
#2610000
b0 !
b0 0
1D
1@
1#
b111110 $
b111110 8
b100000101 .
1%
#2620000
b100000110 .
0%
#2630000
b111111 O
bz !
bz 0
0@
b111111 ?
b111111 P
0D
0#
b111111 >
b100000111 .
1%
#2640000
b100001000 .
0%
#2650000
b0 !
b0 0
1D
1@
1#
b111111 $
b111111 8
b100001001 .
1%
#2660000
b100001010 .
0%
#2670000
b1000000 O
bz !
bz 0
0@
b1000000 ?
b1000000 P
0D
0#
b1000000 >
b100001011 .
1%
#2680000
b100001100 .
0%
#2690000
b0 !
b0 0
1D
1@
1#
b1000000 $
b1000000 8
b100001101 .
1%
#2700000
b100001110 .
0%
#2710000
b1000001 O
bz !
bz 0
0@
b1000001 ?
b1000001 P
0D
0#
b1000001 >
b100001111 .
1%
#2720000
b100010000 .
0%
#2730000
b0 !
b0 0
1D
1@
1#
b1000001 $
b1000001 8
b100010001 .
1%
#2740000
b100010010 .
0%
#2750000
b1000010 O
bz !
bz 0
0@
b1000010 ?
b1000010 P
0D
0#
b1000010 >
b100010011 .
1%
#2760000
b100010100 .
0%
#2770000
b0 !
b0 0
1D
1@
1#
b1000010 $
b1000010 8
b100010101 .
1%
#2780000
b100010110 .
0%
#2790000
b1000011 O
bz !
bz 0
0@
b1000011 ?
b1000011 P
0D
0#
b1000011 >
b100010111 .
1%
#2800000
b100011000 .
0%
#2810000
b0 !
b0 0
1D
1@
1#
b1000011 $
b1000011 8
b100011001 .
1%
#2820000
b100011010 .
0%
#2830000
b1000100 O
bz !
bz 0
0@
b1000100 ?
b1000100 P
0D
0#
b1000100 >
b100011011 .
1%
#2840000
b100011100 .
0%
#2850000
b0 !
b0 0
1D
1@
1#
b1000100 $
b1000100 8
b100011101 .
1%
#2860000
b100011110 .
0%
#2870000
b1000101 O
bz !
bz 0
0@
b1000101 ?
b1000101 P
0D
0#
b1000101 >
b100011111 .
1%
#2880000
b100100000 .
0%
#2890000
b0 !
b0 0
1D
1@
1#
b1000101 $
b1000101 8
b100100001 .
1%
#2900000
b100100010 .
0%
#2910000
b1000110 O
bz !
bz 0
0@
b1000110 ?
b1000110 P
0D
0#
b1000110 >
b100100011 .
1%
#2920000
b100100100 .
0%
#2930000
b0 !
b0 0
1D
1@
1#
b1000110 $
b1000110 8
b100100101 .
1%
#2940000
b100100110 .
0%
#2950000
b1000111 O
bz !
bz 0
0@
b1000111 ?
b1000111 P
0D
0#
b1000111 >
b100100111 .
1%
#2960000
b100101000 .
0%
#2970000
b0 !
b0 0
1D
1@
1#
b1000111 $
b1000111 8
b100101001 .
1%
#2980000
b100101010 .
0%
#2990000
b1001000 O
bz !
bz 0
0@
b1001000 ?
b1001000 P
0D
0#
b1001000 >
b100101011 .
1%
#3000000
b100101100 .
0%
#3010000
b0 !
b0 0
1D
1@
1#
b1001000 $
b1001000 8
b100101101 .
1%
#3020000
b100101110 .
0%
#3030000
b1001001 O
bz !
bz 0
0@
b1001001 ?
b1001001 P
0D
0#
b1001001 >
b100101111 .
1%
#3040000
b100110000 .
0%
#3050000
b0 !
b0 0
1D
1@
1#
b1001001 $
b1001001 8
b100110001 .
1%
#3060000
b100110010 .
0%
#3070000
b1001010 O
bz !
bz 0
0@
b1001010 ?
b1001010 P
0D
0#
b1001010 >
b100110011 .
1%
#3080000
b100110100 .
0%
#3090000
b0 !
b0 0
1D
1@
1#
b1001010 $
b1001010 8
b100110101 .
1%
#3100000
b100110110 .
0%
#3110000
b1001011 O
bz !
bz 0
0@
b1001011 ?
b1001011 P
0D
0#
b1001011 >
b100110111 .
1%
#3120000
b100111000 .
0%
#3130000
b0 !
b0 0
1D
1@
1#
b1001011 $
b1001011 8
b100111001 .
1%
#3140000
b100111010 .
0%
#3150000
b1001100 O
bz !
bz 0
0@
b1001100 ?
b1001100 P
0D
0#
b1001100 >
b100111011 .
1%
#3160000
b100111100 .
0%
#3170000
b0 !
b0 0
1D
1@
1#
b1001100 $
b1001100 8
b100111101 .
1%
#3180000
b100111110 .
0%
#3190000
b1001101 O
bz !
bz 0
0@
b1001101 ?
b1001101 P
0D
0#
b1001101 >
b100111111 .
1%
#3200000
b101000000 .
0%
#3210000
b0 !
b0 0
1D
1@
1#
b1001101 $
b1001101 8
b101000001 .
1%
#3220000
b101000010 .
0%
#3230000
b1001110 O
bz !
bz 0
0@
b1001110 ?
b1001110 P
0D
0#
b1001110 >
b101000011 .
1%
#3240000
b101000100 .
0%
#3250000
b0 !
b0 0
1D
1@
1#
b1001110 $
b1001110 8
b101000101 .
1%
#3260000
b101000110 .
0%
#3270000
b1001111 O
bz !
bz 0
0@
b1001111 ?
b1001111 P
0D
0#
b1001111 >
b101000111 .
1%
#3280000
b101001000 .
0%
#3290000
b0 !
b0 0
1D
1@
1#
b1001111 $
b1001111 8
b101001001 .
1%
#3300000
b101001010 .
0%
#3310000
b1010000 O
bz !
bz 0
0@
b1010000 ?
b1010000 P
0D
0#
b1010000 >
b101001011 .
1%
#3320000
b101001100 .
0%
#3330000
b0 !
b0 0
1D
1@
1#
b1010000 $
b1010000 8
b101001101 .
1%
#3340000
b101001110 .
0%
#3350000
b1010001 O
bz !
bz 0
0@
b1010001 ?
b1010001 P
0D
0#
b1010001 >
b101001111 .
1%
#3360000
b101010000 .
0%
#3370000
b0 !
b0 0
1D
1@
1#
b1010001 $
b1010001 8
b101010001 .
1%
#3380000
b101010010 .
0%
#3390000
b1010010 O
bz !
bz 0
0@
b1010010 ?
b1010010 P
0D
0#
b1010010 >
b101010011 .
1%
#3400000
b101010100 .
0%
#3410000
b0 !
b0 0
1D
1@
1#
b1010010 $
b1010010 8
b101010101 .
1%
#3420000
b101010110 .
0%
#3430000
b1010011 O
bz !
bz 0
0@
b1010011 ?
b1010011 P
0D
0#
b1010011 >
b101010111 .
1%
#3440000
b101011000 .
0%
#3450000
b0 !
b0 0
1D
1@
1#
b1010011 $
b1010011 8
b101011001 .
1%
#3460000
b101011010 .
0%
#3470000
b1010100 O
bz !
bz 0
0@
b1010100 ?
b1010100 P
0D
0#
b1010100 >
b101011011 .
1%
#3480000
b101011100 .
0%
#3490000
b0 !
b0 0
1D
1@
1#
b1010100 $
b1010100 8
b101011101 .
1%
#3500000
b101011110 .
0%
#3510000
b1010101 O
bz !
bz 0
0@
b1010101 ?
b1010101 P
0D
0#
b1010101 >
b101011111 .
1%
#3520000
b101100000 .
0%
#3530000
b0 !
b0 0
1D
1@
1#
b1010101 $
b1010101 8
b101100001 .
1%
#3540000
b101100010 .
0%
#3550000
b1010110 O
bz !
bz 0
0@
b1010110 ?
b1010110 P
0D
0#
b1010110 >
b101100011 .
1%
#3560000
b101100100 .
0%
#3570000
b0 !
b0 0
1D
1@
1#
b1010110 $
b1010110 8
b101100101 .
1%
#3580000
b101100110 .
0%
#3590000
b1010111 O
bz !
bz 0
0@
b1010111 ?
b1010111 P
0D
0#
b1010111 >
b101100111 .
1%
#3600000
b101101000 .
0%
#3610000
b0 !
b0 0
1D
1@
1#
b1010111 $
b1010111 8
b101101001 .
1%
#3620000
b101101010 .
0%
#3630000
b1011000 O
bz !
bz 0
0@
b1011000 ?
b1011000 P
0D
0#
b1011000 >
b101101011 .
1%
#3640000
b101101100 .
0%
#3650000
b0 !
b0 0
1D
1@
1#
b1011000 $
b1011000 8
b101101101 .
1%
#3660000
b101101110 .
0%
#3670000
b1011001 O
bz !
bz 0
0@
b1011001 ?
b1011001 P
0D
0#
b1011001 >
b101101111 .
1%
#3680000
b101110000 .
0%
#3690000
b0 !
b0 0
1D
1@
1#
b1011001 $
b1011001 8
b101110001 .
1%
#3700000
b101110010 .
0%
#3710000
b1011010 O
bz !
bz 0
0@
b1011010 ?
b1011010 P
0D
0#
b1011010 >
b101110011 .
1%
#3720000
b101110100 .
0%
#3730000
b0 !
b0 0
1D
1@
1#
b1011010 $
b1011010 8
b101110101 .
1%
#3740000
b101110110 .
0%
#3750000
b1011011 O
bz !
bz 0
0@
b1011011 ?
b1011011 P
0D
0#
b1011011 >
b101110111 .
1%
#3760000
b101111000 .
0%
#3770000
b0 !
b0 0
1D
1@
1#
b1011011 $
b1011011 8
b101111001 .
1%
#3780000
b101111010 .
0%
#3790000
b1011100 O
bz !
bz 0
0@
b1011100 ?
b1011100 P
0D
0#
b1011100 >
b101111011 .
1%
#3800000
b101111100 .
0%
#3810000
b0 !
b0 0
1D
1@
1#
b1011100 $
b1011100 8
b101111101 .
1%
#3820000
b101111110 .
0%
#3830000
b1011101 O
bz !
bz 0
0@
b1011101 ?
b1011101 P
0D
0#
b1011101 >
b101111111 .
1%
#3840000
b110000000 .
0%
#3850000
b0 !
b0 0
1D
1@
1#
b1011101 $
b1011101 8
b110000001 .
1%
#3860000
b110000010 .
0%
